Model;HP;Wheel.base;Price
Acura Integra;130;102;11,95
Acura Legend;160;109;24,76
Audi 100;130;106;26,9
Audi 80;108;100;18,9
BMW 325i;168;101;24,65
BMW 535i;208;109;33,2
Buick Century;110;105;13,15
Buick Electra;165;111;20,225
Buick Le Sabre;165;111;16,145
Buick Regal;101;108;
Buick Riviera;165;108;23,04
Cadillac Brougham;140;122;27,4
Cadillac De Ville;180;114;26,96
Cadillac Eldorado;180;108;28,855
Cadillac Seville;;108;
Chevrolet Astro;150;111;13,79
Chevrolet Beretta;95;103;10,32
Chevrolet Camaro;140;101;10,995
Chevrolet Caprice;170;116;14,525
Chevrolet Cavalier;95;101;8,62
Chevrolet Corsica;;103;
Chevrolet Corvette;250;96;31,979
Chevrolet Lumina;110;108;12,14
Chevrolet Lumina APV;120;110;13,995
Chrysler Imperial;150;109;25,495
Chrysler Le Baron;150;103;10,945
Chrysler Le Baron Coupe;150;100;12,495
Dodge Caravan;100;112;11,995
Dodge Colt;81;94;6,851
Dodge Daytona;150;97;9,745
Dodge Dynasty;100;104;12,995
Dodge Grand Caravan;150;119;15,395
Dodge Omni;93;99;6,995
Dodge Shadow;150;97;8,845
Dodge Spirit;141;103;
Eagle Premier;150;106;15,35
Eagle Summit;113;97;8,895
Ford Aerostar;145;119;12,267
Ford Escort;90;94;7,402
Ford Festiva;63;90;6,319
Ford LTD Crown Victoria;150;114;17,257
Ford Mustang;88;101;9,456
Ford Probe;110;99;11,47
Ford Taurus;90;106;12,64
Ford Tempo;98;100;9,483
Ford Thunderbird;140;113;14,98
GEO Metro;55;93;6,695
GEO Prizm;102;96;10,125
GEO Storm;95;97;10,39
Honda Accord;125;107;12,145
Honda Civic;92;98;6,635
Honda Civic CRX;108;91;9,41
Honda Prelude;140;101;13,945
Hyundai Excel;81;94;5,899
Hyundai Sonata;110;104;9,999
Infiniti Q45;278;113;38
Lexus LS400;250;111;35
Lincoln Continental;140;109;29,422
Lincoln Mark VII;225;109;29,246
Lincoln Town Car;150;117;27,986
Mazda 323;;97;
Mazda 626;110;101;12,459
Mazda 929;158;107;23,3
Mazda MPV;150;110;14,944
Mazda MX-5 Miata;116;89;13,8
Mazda MX-6;110;99;12,279
Mazda Protege;103;98;6,599
Mazda RX7;160;96;17,88
Mercedes-Benz 190;158;105;31,6
Mercedes-Benz 300E;177;110;39,95
Mercury Tracer;82;95;8,672
Mitsubishi Galant;102;102;10,989
Mitsubishi Precis;81;94;5,899
Mitsubishi Sigma;142;102;17,879
Mitsubishi Wagon;107;88;14,929
Nissan 240SX;140;97;13,249
Nissan 300ZX;180;97;27,9
Nissan Axxess;138;103;13,949
Nissan Maxima;160;104;17,899
Nissan Pulsar NX;90;96;12,249
Nissan Sentra;90;96;7,399
Nissan Stanza;138;100;11,65
Nissan Van;106;93;14,799
Peugeot 405;120;105;15,93
Peugeot 505;120;108;19,945
Plymouth Laser;92;97;10,855
Pontiac Bonneville;165;111;
Pontiac Grand Am;160;103;10,565
Pontiac LeMans;74;99;7,254
Porsche 944;165;95;41,99
Saab 900;128;99;16,995
Saab 9000;130;105;25,995
Sterling 827;160;109;23,55
Subaru Justy;73;90;5,866
Subaru Legacy;130;102;11,499
Subaru Loyale;90;97;9,599
Subaru XT;97;97;13,071
Toyota Camry;115;102;11,588
Toyota Celica;130;99;12,268
Toyota Corolla;102;96;8,748
Toyota Cressida;190;106;21,498
Toyota Supra;200;102;22,86
Toyota Tercel;78;94;6,488
Volkswagen Corrado;158;97;17,9
Volkswagen Fox;81;93;7,225
Volkswagen GTI;105;97;9,995
Volkswagen Golf;100;97;8,695
Volkswagen Jetta;100;97;9,995
Volkswagen Vanagon;90;97;14,08
Volvo 240;114;104;18,45
Volvo 740;114;109;21,7
